0.025 0.9852
0.075 0.9832
0.125 0.9843
0.175 0.9892
0.225 0.9884
0.275 0.9927
0.325 0.9886
0.375 0.9938
0.425 0.9986
0.475 0.994
0.525 0.9902
0.575 1.002
0.625 0.9945
0.675 0.9932
0.725 0.9932
0.775 0.9948
0.825 0.9932
0.875 0.9913
0.925 0.9893
0.975 0.9899
1.025 0.984
1.075 0.9866
1.125 0.989
1.175 0.9885
1.225 0.99
1.275 0.993
1.325 1.002
1.375 1.001
1.425 1.008
1.475 1.003
1.525 1.008
1.575 1.004
1.625 1.003
1.675 0.9974
1.725 0.9998
1.775   1
1.825 0.9879
1.875 0.9901
1.925 0.9913
1.975 0.987
2.025 0.9815
2.075 0.9861
2.125 0.9931
2.175 0.9853
2.225 0.9887
2.275 0.9958
2.325 0.9964
2.375 0.9981
2.425 1.007
2.475 1.004
2.525 0.9994
2.575 1.011
2.625 1.005
2.675 1.006
2.725 1.001
2.775 1.002
2.825   1
2.875 0.9937
2.925 0.9916
2.975 0.9925
3.025 0.9907
3.075 0.9924
3.125 0.9935
3.175 0.9923
3.225 0.9956
3.275 0.9947
3.325 1.004
3.375 1.002
3.425 1.009
3.475 1.016
3.525 1.011
3.575 1.013
3.625 1.007
3.675 1.006
3.725 1.008
3.775 1.007
3.825 1.002
3.875 1.001
3.925 1.001
3.975 0.9967
4.025 0.9935
4.075 0.989
4.125 0.9878
4.175 0.9869
4.225 0.9888
4.275 0.9931
4.325 0.9976
4.375 0.9991
4.425 0.9987
4.475 1.002
4.525 1.006
4.575 0.9976
4.625 0.9992
4.675 0.999
4.725 0.9976
4.775 0.9951
4.825 0.9906
4.875 0.9895
4.925 0.987
4.975 0.9823
5.025 0.9858
5.075 0.9821
5.125 0.9854
5.175 0.9841
5.225 0.9873
5.275 0.9852
5.325 0.9891
5.375 0.9937
5.425 0.9936
5.475 0.9951
5.525 0.9947
5.575 0.9976
5.625 0.9944
5.675 0.9946
5.725 0.9874
5.775 0.9845
5.825 0.9844
5.875 0.9838
5.925 0.9797
5.975 0.9793
6.025 0.977
6.075 0.9732
6.125 0.9763
6.175 0.9689
6.225 0.98
6.275 0.9878
6.325 0.9944
6.375 0.9925
6.425 0.9903
6.475 0.9921
6.525 0.9865
6.575 0.9822
6.625 0.9906
6.675 0.9882
6.725 0.9918
6.775 0.9888
6.825 0.9897
6.875 0.9847
6.925 0.9803
6.975 0.9823
7.025 0.9788
7.075 0.9769
7.125 0.9841
7.175 0.9869
7.225 0.9809
7.275 0.976
7.325 0.986
7.375 0.9865
7.425 0.9841
