      295       166        45        11         7         1         5         0         3         5         4         0         8        14        23        26        18         7         4         1        10         4         6         0         0         0         0         0         0         0         0         0         0         0         0         0         0         0         0         0         0         0         0         0         0         0         0         0         0         0
      505       275        84        28        13         8        16         0         4         0         2         2         9        26        43        29        16         6         5        11        13         4         0         4         0         0         0         0         0         0         0         0         0         0         0         0         0         0         0         0         0         0         0         0         0         0         0         0         0         0
      631       443       157        93        88       123       190       121        41        18         8        21        15        17        42        31         7        14         6        16        12        10         6         0         0         0         0         0         0         0         0         0         0         0         0         0         0         0         0         0         0         0         0         0         0         0         0         0         0         0
     1229       914       352       258       284       874      1537      1169       404       118       816      2514      3316      1325       196        37        16        13         9         6        12        14         6         0         0         0         0         0         0         0         0         0         0         0         0         0         0         0         0         0         0         0         0         0         0         0         0         0         0         0
     1027       864       463       413       377      1418      2812      1951       662       198      1059      3427      3707      1504       276        54        40        44        44        13        12         5         7         1         0         4         0         4         4         0         0         0         0         0         0         0         0         0         0         0         0         0         0         0         0         0         0         0         0         0
      820       703       459       325       292       594      1369      1436      2074       863      3439      7180      6786      5905      1951       646       278       152        54        10        19         2        12         8        12        16         6         4         4         0         0         0         0         0         0         0         0         0         0         0         0         4         0         0         0         0         0         0         0         0
      751       962       437       212       267       398       914      1807      2706      2185      3094      4199      6437      7746      5800      2653       906       188        49        28        16         0         4         0         0         8         0         0         0         4         4         0         0         0         0         0         0         0         0         0         4         0         0         0         0         0         0         0         0         0
      611       578       333       158       249       342       761      2146      3196      4396      5936      5739     10492     16502     21260     16182      4838       905        65        38        17         9        16         0         0         0         4         4         0         4         8         8         0         0         0         4         0         0         0         0         0         0         0         0         4         0         0         0         0         0
      365       431       179        88       117       136       428      1127      1870      3277      4722      6795     13961     24987     24507     15138      6628      3097       768        58        10         8         6         4         4         0         4         0         4         8         6         0         8         8         0         0         0         0         0         0         0         0         0         0         0         0         0         0         0         0
      556       371       170        75        90       155       535      1606      2181      2535      4453     11794     24433     40600     52647     50438     33087     13963      4522       795       131        29        12         4         0         4        16         0         4         4         2        20         8         0        15        12         0         0         0         0         8         0         0         8         0         0         4         4         0         0
      990       693       352       183       141       190       602      1175      2255      5355     12621     30841     49586     76807    108396    102885     70464     39039     18935      5252       858        65        17        10         8        16         9        24        28        48        56        28        28        28        16        12        19        12         0         4        16         0         0         0         0         0         0         0         0         0
      420       348       307       165        90       250       589       999      1821      6349     18257     48436     96867    167648    230216    222449    170260    120521     72411     31815      7901      1012        61         9         8        12        37        34        17        52        32        42        61        40        47        67        38        39        16        12         8         7         4         8         8         0         4         0         4         8
       87       166       220       342       344       230       540       718      1008      3795     16765     61376    152478    324228    484282    516113    400196    234046    117553     50828     14719      3271       440        33        15        16        43        37        73       103       158       133       135       176       139        88        70        44        38        20        16        33        12         4        12        12        16         8         8        12
       69       185       182       390      1892      2867      4267      5258      4547      6824     17188     45998    145150    349996    626482    815836    702028    419905    222456     90967     33272     10813      1717       116        20        44        60        86       142       121       214       327       311       258       272       195       101       129        60        89        34        32        19         8         8        16        20        16        12        19
       68       157       180       330      1521      2835      3700      4504      4687      6810     14791     37285    115962    295816    591320    870542    883781    704278    441884    219980    101067     33499      5222       320        36        47        48        61        89       103       149       192       237       306       238       340       253       142       171       120       125        60        48        34        20        22        35        11        15        12
      194       588       137       227       520       613       742      1365      3653      6864     13960     27824     77597    232096    527849    890524   1096948    977693    655338    331957    145911     46329      8952      1060        97        53        48        69        63        85        94       188       200       262       311       305       314       317       239       184       113        86        50        22        17        12        20        13        10        12
      192       656       160       329      1010       886       599       796      2874      6093     13307     29976     61189    156325    407079    786706   1086792   1108514    813879    453437    203812     76585     18052      2165       136        50        50        26        47        40        88       130       166       287       330       410       376       360       281       205       186        99        76        65        27        47        24        20        42        26
       56       206       111       390       881      1179      1256      1449      1587      2659      6228     14115     33631    101425    284839    622287   1053493   1283811   1102243    688861    344490    153489     44035      5119       235        36        39        40        44        38        44        88       164       272       238       356       469       387       323       330       247       149       179        73        70        25        29        10        12        18
       13       174       234       547       859       722       601       686      1269      3253      8754     15175     30437     73405    181944    438337    876252   1247287   1226091    865588    466592    226722     79113     12491       718        24        34        19        48        14        59        47       104       120       168       279       297       264       343       333       212       191       104        72        45        48        41        13        27         8
       40        49       168       642       691       414       339       378      1227      4501      9104     16486     28815     58463    126564    316872    711658   1135177   1221732    925980    520179    243839     81082     12417       753        45        32        19        40        18        50        56        78        75       124       176       188       271       228       323       202       179       137        92        87        40        53        16        24         4
        4        10        42        84       143        94       134       375       806      2458      5890     11524     21936     44295    102995    239548    551223    971698   1167814    986106    593860    269442     85224     15290      1640       324        59        15        21        29        33        38        53        71        64       112       163       180       261       237       220       222       100       103        67        49        29        24        12         4
        1        18         8        31        39        67        74        98       361      1283      3447      7721     17559     41272     95800    203991    442391    813689   1051625    938419    632459    321389    115910     26739      4208       532        80        23         9        25        16         8        32        35        50        62       104       121       150       145       131       138       108        63        72        25        27        16         0         4
        4        29        20        20        63       130       218       325       488      1117      3019      6692     13150     32282     76809    160710    330167    614094    857602    831031    603745    330788    141814     41531      6417       548        21        38        62        17        24        31         8        23        47        40        85        63        99       136       106       111        98        80        68        32         8         4         8         6
        8        19        44        85        76        98       155       333       791      1220      2813      6491     13707     27597     63397    143653    288119    490983    734322    833637    633919    365563    152914     40716      7331       917        33        10        12        23        32        20        15        44        49        76        95       134       144       141       135       162       133        78        55        36        29        10        12         8
        9        25        25        74       122       136       177       409      1029      1650      2506      6105     13027     25453     48859    103321    222511    410944    626828    740939    636279    405919    182597     57065     17746      3804       264        24        41        29        12         8        30        32        31        74        58        93       108       111       127       140        90        80        70        54        25        20        27         6
       19        37       108       386       413       543       648       501       538       892      1686      4668     11559     23601     44904     85535    180953    350227    543827    679186    621794    412394    209595     79157     23525      4038       515        33        25        14        19        19        21         5        25        42        41        64        98       148        50        62        56       104        80        58        28        10        31         8
        0        31        50       232       350       446       573       365       457       841      2376      5743     11162     21034     37903     71024    144686    277730    444764    576244    578675    448621    256714    101075     27452      5781       633        24         8        20        15        15         9        16        12        28        20        53        77        74        91       101       107       113        84        66        57        20        50        10
        0        11        24        52        82       124       171       347       577      1265      3589      7331     12567     21175     37191     67851    124715    230217    363917    485686    524138    433604    255850    103535     34031      9727      1385        80         5         2         9        23         6        12        17        15        20        39        57        85        46        45        40        68        73        84        73        59        26        34
       11        12        12        24       109       174       269       454       419       578      1372      3209      6417     12713     24345     45687     90829    172604    290796    409399    465290    413092    271123    129922     47791     11631      1698       124        13        21        17        12         7        21        21        14        14        23        48        44        57        80        65       112       100        75        40        46        33        26
        0         2        22        60       107       180       228       528       366       471      1195      2782      4528      9515     17910     34501     67066    125697    213962    320338    409803    395710    278943    139993     46596      8175       645        24        18         9         4        16         8         6        25        16        13        33        21        24        56        82        84        75        48        82        56        42        37        30
        2         7        11        33       177       382       320       297       314       541      1455      2484      4378      8349     13974     26534     47500     92504    170716    274991    347517    343981    255191    135257     41937      6511       459        19        16        15         0         7         8        20        22         0        16        20        21        17        37        46        73        30        31        44        44        42        17        40
        4        15        21        30       140       399       456       277       261       493      1679      2767      4236      7110     12028     20935     36073     68631    133358    230157    316973    328201    249274    152178     75848     23546      3172        65         5         2         0         3         1         0        17         6         8        13        12         5        34        36        40        39        45        20        36        28        16        25
       10        15        25        15        55        97       149       120       172       434      1237      2351      3901      6338     10633     17300     30340     54264    103411    192393    280953    300198    256867    178040     84195     25235      3198       125        14        11         4         0         4         7         8        12         4         9        26        23        11        33        16        46        16        24        27        12        12        28
       10         5        22         8        54        48        63        95       150       439       916      2304      3590      5553      8751     13976     25490     45105     82150    151742    235675    262454    218459    142982     68699     20060      2955       168        13         0         1         0         4         0        12        15         4         8         8         4        17        15        16         8        16        25        43        17        24        23
        3         3         4        19        37        30        36        60       153       496       931      1989      3152      4753      7766     11595     19666     34131     61605    111124    179070    229043    226931    159658     78341     22065      3030       354        20         6         3         4         0         4         4         8        13        16         4         9        27         4        20        16        15        24        22        20        35        28
        2         6         2         9        28        70        43        88       187       514      1012      1643      2826      4461      6657     10099     16183     27225     45657     79640    127276    164647    171785    127961     65434     21355      4947       814       107        24         9         0         5         4         0         4         2         8         4        17        23        12        23         0         9        29        11         5         8         4
       12        13        15         8        39        37        77       137       261       537       912      1551      2423      3977      6129      8557     13645     21701     36987     58042     86430    110241    117223     97608     62179     25068      5703       964       111        32         1         0         0         0         9         4         4         0         8         0         0         4         8        12        23        12        24         5        12         4
        1         7         6         6        27        88       235       264       251       507      1007      1732      2701      3807      5575      7712     11105     17698     28115     43301     63646     87322     99316     74723     43485     17287      5336      1076       215        81         8         8         0         4         4         8         0         4         0         0        16         8         4        20         4         8        24         4        12         8
        6         4        15        34        40        34       129       246       247       524      1096      1884      2841      3304      4530      6260      9383     14491     21380     32809     50131     65646     61120     40604     21781      9350      4183      1217       210         7         0         0         0         4         0         0         0         0         4         4         0         3         8         0         9         4         8         0         0         0
        1         4         2        29        28        31        60       145       336       607      1028      1766      2384      2954      3696      5503      8090     12083     16274     23109     34196     44985     39311     25035     13060      5246      2184       780       163         2         0         0         4         0         0         0         0         4         4        16         0         0         0         4        12         0         4         0         0         4
        2         4         6        31        54        34        69       181       492       739      1282      1642      1835      2230      3150      4795      6604      9233     12438     16154     21671     26990     24209     16918      9409      3772       838       134        25         2         0         7         0         0         0         0         0         4         4         4         0         0         0        11         4         0         4         0         0         0
        3        11        24        44        95       132       108       367       648       986      1481      1739      1618      2097      2731      3942      5290      7655      9165     12048     15549     18256     17036     13150      7818      2886       516        61        17         0         0         0         0         0         0         0         4         4         0         0         0         0         0         4         0         4         3        16         0         0
        3        32        40        92       182       245       371       609       805      1235      1377      1363      1182      1660      2640      3641      4617      5541      7079      9116     10575     12633     11645      9692      5699      2113       493        77        22         0         4         4         0         0         0         0         0         4         0         0         4         0         0         8         0         0         4         0         0         4
        0        17        25        67       190       292       417       590       656       981      1023      1024      1107      1652      2190      2649      3635      4333      5384      6504      7390      8748      8360      6747      3978      1568       394        92        19         0         0         1         0         0         0         0         0         0         0         4         0         4         0         8         4         0         0         0         0         4
        4         2         4        15        37       116       143       238       383       502       650       828       932      1424      1779      2440      2929      3479      4073      4940      5664      6258      6286      4604      2559      1026       347       346       379       103         0         0         0         0         4         0         0         0         4         0         0         0         0         4         0         0         0         0         0         0
        0         0         0        15        13        31        89        80       193       313       532       718       817      1156      1520      1865      2549      2876      3268      3719      4098      4235      4188      2946      1293       373       121       202       384       207        12         0         0         0         0         0         0         0         0         0         0         0         0         0         4         0         4         0         0         0
        1         0         0        11         4        23        23        58       135       194       321       611      1050      1043      1208      1678      2124      2410      2452      2694      2738      2773      2603      1884       712       157        49         5        41        22         4         0         0         0         0         4         0         4         0         0         0         0         0         0         0         0         4         0         0         0
        0         4         0         5         5         1        28        42        85       126       256       397       847      1188      1227      1616      1776      1960      2084      1990      2006      2040      1589      1141       392       124        23         3         0         0         0         0         4         0         0         0         0         0         0         4         4         0         0         0         0         0         0         0         0         0
        0         0         0        17         0        10        13        35        51       100       235       359       570      1046      1444      1467      1704      1715      1780      1660      1475      1510      1040       617       181        37        13         0         0         0         0         0         0         0         0         4         0         0         4         0         0         0         0         0         0         0         0         0         0         0
        0         6         3         0         3         0        16        22        36        99       198       204       442       743      1116      1523      1683      1610      1657      1338      1243      1018       752       397       132        24        22        35        56        27         0         0         0         0         0         0         0         0         0         0         0         0         0         0         0         0         0         0         0         0
