        0         2         0         7         3        33        21        32        31        73        42        28        44        46        60        61        31        68        58        57        45        58        40        58        60        53        36         8        10         6         0         2         0         0         3         0         0         4         2         0         3         1         0         1         0         0         0         2         0         3
        4         5         0        19        13        29        57        51        89        66        50        75        74        50        78        58        52        55        84        90       104        80        95        59        71        50        45        31         6         3         4         7         7        10         5         2         0         5         8         2         6        11         1         0         7         1         3         2         0         3
        0         1         5        11        21        55        72        49        68        74        89        82       139        62        58        76        75        48        80       151       158       122       123        81       115        58        60        29        31         9        14        16         4         0        17        12        62        74        66        38        80        83        59        22        21        20        15         9         9         8
        1         0         3        38        44        66        76        95       178       113       106       148       226       128       101        71       129       115       230       303       236       175       144       178       263      1139      4536      2058       522       138        48        42        17        25        36       198       680      1119       918       409       271       265       159        64        53        72        81        57        46        36
        0         5         9        18        70       104       135        93       173       172       111       141       227       130        79        63       100       132       208       385       231       182       141       188       902      2394      3782      2533       709       145        26        32        20        22       116       565      1374      1683      1010       537       636       658       352       129       111        68        77        65        77        45
        0         0        11        11        64       120       147        98       172       121        72       103       189       155       129        38        97        95       132       335       223       144       172       295      1276      5597     11027      7663      2849       745       159        54        13        44        49       228       443       391       259       388       611       679       283       122        56        52        69        44        28        43
        0        17        11        32        71       117        78        78       265       115        57        72       189       381       152        52        60        56       168       339       210       282      1249      5216      7427      7445      6529      4316      3333      1405       283        73        39        20        41        37        29        41        88       349       686       482       188        75        58        47        44        28        41        18
        0         6         8        48        75       127        84        73       168        94        78        63       203       173        51        50        59        80       118       231       639      1512      7869     26209     27402     13463      6529      4026      2378       868       193        47        38        19        27        19        39        43       149       410       560       533       173        69        44        40        52        18        12        35
        0         4         6        22        27        86        79        62        93        58        55        39        96        68        45        44        41        76        95       273       909      4420     21059     30351     24351     14876      6316      2690       732       215        32        26        12         8        11        17        34        72       230       432       500       306        83        41        25        37        22         7        28        23
        3        16        11        42        95        80       107       101       123       102        57       113       113        69        53        63        80        98       143       744      4333     28406     81755     64517     34108     15328      7332      3573       951       202       187       106        24        12         9        34       243       570       746       524       287       170        54        18        29        10        31        18        62        24
       17        34        58       106       135       187       261       224       233       148       159       199       181       133       152        77       136       284       449      8173     42135    129293    168737     91226     38540     19744     11677      4740      1511      1739      2306      1149       179        30        54       192       546      1279      1285       682       268       135        67        46        84        71        68        90        65        40
        0        12        32        33        75        79        77       136        61        96       141       105        61        70        30        48       120       196      2330     44553    217563    414746    309772    129524     44272     15649      4633      1279      2835      4106      1793       492        99        65       209       414       583      1108      1312       592       184        91        53        72        94       119        88        72        53        21
        0         1         7        22        21        63        24         3        29        54        54        46        20        19         6        32        57       219     14641    180169    624810    827957    491886    173599     48615     15338      1724       460       145       196       128        84       116       103       107       245       393       886       971       428       121        79        97       231       295       227       170       145        59        44
        0         0        26        61        52       108        52        37       103       262        74        37        27        45        24        17        67       728     41099    436506   1231490   1146087    505810    105453     22698     13067      1309       244        21        11        12        63        96       189       340       432       439       540       602       210       117       148       322       458       461       422       259       153        64        20
        0         9        28        73        86        87        36        60       147       201        40        40        33        79        24        23        95      3950    134224    895201   1627747   1138777    436510     81073     12476      5074       844       347       143        38        45        56       356       812       556       347       223       312       346       170       179       264       537       591       524       369       114        52        28         0
        0        15       107       136        56       140        32        64       465       184        20        38        50        12        17        22       219     16647    333372   1472283   1883121   1012485    273236     44000      9872      1031       378       129        18        26        36        28       145       277       179       101        98       174       186       193       314       434       526       596       401       192       106        46        24        21
        0        11        92       149        24       128        23        35       597       362        32        10        37        12        28        20       395     52527    692118   1898299   1657322    722080    169623     31344      5140       251       170       118       103       356       249        31        24        32        17        32        56        88       179       227       560       663       631       458       316        99        56        16         8         3
        0        14         3        10         0        24         4        25       147       163        24        12        10        17        23        30      3070    159264   1208024   2224630   1534469    500006     91017     21679      2610       146       187       154       347      1313       690        56         4         1         5        11        60        58       218       487       750       751       599       363       124        95        19         8         8         5
        1        42         1        17         0        26        13        19       103       109        22         0         9         2        19        89     16114    381033   1630756   2119473   1187638    318913     72575     24453      2904       278       329       342       361       987       568        57         8         6         3        35        73       100       285       504       659       500       310       224        67        41        24         8        16        18
        4        18         9        16         0        10        14        22        72       140        15         7        17         2        45       263     50809    740600   1890412   1683550    734283    231263     61315     18149      3453      1157       369       162       193       787       437        32         0        10         6        19        52       175       329       563       541       357       218       102        42        40        15         9        19         0
        0         8         1        10         0         0         5         7        54        59         5         0         5         5        38       815    112247   1164411   1913985   1209279    458326    151616     43639     13547      2493      1047       389       112       128       476       259        17         4         6        10        25        79       197       397       448       407       214       183        66        55        12        12        12         0         9
       12         0        31        15         0         8         5        19        33        14         7         1         8         4        41      3537    212116   1340226   1737365    936043    342674    101506     31773     10605      1499       651       451       105        79       227       135         7         0         0         0        35        71       190       249       228       184       170       126        55        43        22         4         4         0         1
        8         4         4        20         3         3         2        29        25        32        11         0         8        25        54      6085    258767   1273666   1444219    683522    264432     80177     28708      9501      1921       821       409       119        56       148        64         5         4        10         0        26        86       191       220       164       159       129        49        28        24        24        16        29         4         6
        0         3         4        24        12         4         0        26        82        43        12        13        15        13        83     14152    319958   1343162   1259650    543031    232541     66169     20026      6236      2196       800       363       124        50        66        38         7         6         8        18        60       179       281       351       228        95       108        63        46        18         8         2        12         8         3
        0         4         5         2         8         5         1        48        72        49         5        13        15        19       142     18164    394047   1304278   1110179    463166    141547     53650     13999      5288      1915       772       296        61        36        50        15         3         2         5        20        72       134       276       317       181       101        52        37        28        16         0         8         8         5         5
        1         5         9         1         8        33        16        65        46        32        13         5        36        22       372     35005    469262   1264048    997139    349768    109871     38781      9801      4263      1658       497       276        75        48        31        22         7         7         2        12        77       180       231       188       163        81        28        34        24         4        10         8         0         8         0
        0         6         3         7         0        26        19       102        30        11        31         8        13        38       440     39313    504274   1252244    822478    257396     96542     28413      7751      3431      1350       402       275       210        51        32         6         6         1         4        20       129       224       302       205       136        62        16         5         6        12         4         0         4         4         0
        0         3         0         0         0         0         5        36        24        25         8        15         0        24       793     49987    529987   1090257    728641    204420     80586     23398      6225      2608       998       410       290       285        46        12         7         0         1         5        56       121       172       263       201        88        52        21        10         4        10         4         0         1         2         3
        1         6         6         3        11        11        19        81        48        18        10         7        19        33       694     59549    567274    979699    569630    145298     51619     17405      4958      2012       802       375       310       163        40         4         8         0         4        15        78       155       199       135       168        87        34         9         8        11         0         0         6         2         8         0
        0         2         0         3        21         0         7        64        18        12         6        10        16        24       894     73405    544388    887727    419080    100896     34574     11534      3748      1367       513       435       423       165        32         9         0         0         0        25        72       121       181       153       103        61        26         8        13        10        12        14         4         3         0         1
        0         2         2         0        10        13        18        24        30        16        19        11        22        54      1526    108264    589685    678886    285069     69253     27366      9808      2892      1063       518       516       533       234        39         6         3         0         0        40        46        90       122       104        52        62        12         8         0         7        12         4         4         0         0         1
        0         1         0         7         7         6         5        33        34        17        17         8        11        50      3864    172679    643913    549557    215608     49567     19716      7512      2793       793       411       594       816       294        41         8         3         0         4        27        87       101        73        50        23         4         0         0         4         0         0         0         0         1         0         0
        4         7         9         6         5         0        10        36        36        16         9        12        26        76     13437    233801    616688    460144    168789     35486     13990      6327      2151       554       179        71       121        88        13        10         0         1        12        21        55        52        73        41        36        25        16         0         4         4         0         4         0         4         0         0
        0         0         4         9        15         4         1        27        28        19         5        10        10        88     14124    227655    553105    334299    118409     25999     10676      4853      1821       464       114        16        63        86        17         8         4         4        12        20        35        51        50        32        32        15         4         8         0         4         3         4         4         0         0         3
        0         3         1         5         4         9         4        16        15        10         8         3        27       136     14471    290230    497656    233310     85162     20122      8532      4032      1558       397        60        38       142       111        15         0         9         0         5        32        41        44        46        44        36         8         0         4         0        12         4         4         4         0         0         0
        0         1         0         0         3         0         0        15        20         1        10         6        16       118     19774    246611    361957    163371     61276     15167      6563      3524      1348       328        98        44       253       181        24        12         4         0         4        12        44        32        17        21        28         0         4         0         0         0         0         0         0         0         0         0
        0         5         2         5         6         6         0         9        16         3        12        20        19        91     14643    181778    276811    118118     45850     12097      5278      3212      1358       344        47        57       423       398        10         3         0         0         7        12        48        16        16        16         8         4         3         4         0         0         0         0         0         0         0         0
        0         0         4         0         1         4         0        18         5        17         5         3        14        78      9991    146508    216666     87975     34572     10131      4931      3051      1311       291        37        84       470       452        21         0         0         0         4        16        28        20        28        16         8         4        12         0         1         0         0         4         0         0         0         0
        0         1         1         1         2        11         1         1         2         7         5         5         8       103     11009    118779    122045     57990     25719      8209      4504      2866      1222       245        55        42       314       351         8         0         0         4         8         8         4        17         4         4         1         0         0         0         0         0         0         0         0         0         0         0
        0         4         1         1         0         2         0        18         2         4         5         5         4        90      8388     79364     76781     43360     19298      7259      4065      2670      1095       140         9         9       172       334        16         0         0         0         4        12         4        16        10         0         4         0         0         0         0         0         0         0         0         0         0         0
        0         3         0         0         0         0         4        21        14         4         0         7        12        45      5186     46886     51591     32411     15477      5859      2928      3000      1126       133        16         4        71       132        16         0         0         0         0         0        21         6         2         8         4         0         0         0         0         0         0         0         0         0         0         0
        0         0         2         4         1         4         0        12        11         9         4        18        25        45      5095     32688     37351     24946     12837      4743      2884      3376      1163        82         6         7        77        82         1         0         0         4         3         4        12         4         4         0         4         0         0         0         0         0         0         0         0         0         0         0
        0         0         0         0         0         4         4         4         6         1         3         7        11        88      5519     22879     26156     18649     10190      3731      2723      3550      1087        95        15         8        28        21         0         0         0         0         0         0        12         0         0         0         8         4         0         0         0         0         0         0         0         0         0         0
        0         0         4         0         0         1         0         9         1         0         4         0         5        74      4779     14867     18896     14643      7823      2945      2341      2823       715        78         8         0        11         5         0         0         0         0         4         4         0         4         0         4         4         0         4         0         0         0         0         1         0         0         0         0
        0         0         2         1         0         0         0         4         0        12         0         1        12        77      2831     10553     14762     12088      6059      2594      1872      1222       349        35         9         6         1         0         0         0         0         0         0         0         0         0         0         0         4         4         0         4         0         0         0         0         0         0         0         0
        0         0         2         0         0         6         2         8         0         1         0         1        16        39      1692      6941     10559      9492      4862      2022      1343       632       155        24        12         0         0         0         0         0         0         0         0         0         0         4         4         0         4         0         0         0         0         0         0         0         0         0         0         0
        0         1         0         1         0         4         2         8         0         0         4         0         7        31       917      4089      7215      7748      4121      1520       855       351       109        35        10         0         0         0         0         0         0         0         0         0         4         0         0         0         0         4         0         0         0         0         0         0         0         0         0         0
        0         0         1         1         0         3         2         4         9         3         2         4         1        30       519      2391      5139      7172      3640      1167       593       198        64         8         0         0         4         0         4         0         0         0         0         4         0         0         0         4         0         0         0         0         0         0         0         0         0         0         0         0
        0         0         0         2         0         4         2         4         6         4         4         1         0        10       308      1655      3795      6603      3223       854       357       171        66         6         0         0         0         4         0         0         0         0         0         0         0         0         4         0         4         0         0         0         0         0         0         0         0         0         0         0
        0         0         4         3         2         2         2         3         3         4         0         0         2        15       177      1330      3264      5588      2916       553       287       177        48         9         0         4         4         0         0         0         0         0         0         0         0         0         0         4         0         4         0         0         0         0         0         0         0         0         0         0
