        0         2         0         0        10        12        25        18        40        25        60        43        25        42        38        46        63        55        48        93        43        54        38        21        31        62        30        41        24        18        32        10        22         2         0         0         0         0         3         0         1         3         2         0         4         0         0         0         0         0
        4         1         4        11        18        11        38        52        53        83        50        63        45        66        54        61        80        56        59        98        93        73        60        43        72        51        82        44        34        42        14        17         7         4         4         4         6         1        14         4         6         0         5         7         8         5         0         7         5         3
        0         1         4         5        32        15        44        75        54        55        73        56        84       116        95        46        62        76        80       113       122       108       104        76        78        97        99        81        53        37        25        19        18         7        20         6         7        10        34        66        71        42        28        60        72        45        48        26        23        18
        1         0         0        19        55        46        43        79        88       192        84       103       107       220       139       113        73        91       135       153       230       285       176       131       252       818      3882      2867       747       262        88        68        34        37        27        13        60       152       563       954       841       538       248       177       195       227       153        46        43        52
        0         5        10        12        38        93        75       126        88       181       130       122       116       218       149        73        44       106       143       174       206       359       164       183       746      2013      3465      2858      1227       280        87        59        27        22        16        37       149       527      1102      1444      1107       515       330       437       691       433       228       112        93        66
        0         0         3        17        36       118        59       153       110       144       127        61        75       224       138        88        78        65       106       159       196       275       169       255      1268      4275      9516      8997      3736      1298       376        75        57        24        18        30        52       191       416       411       240        95       236       422       645       462       233        79        48        33
        0        17         4        39        48        97        64       105       194       135        94        40       100       370       245        74        47        48        72       147       256       469      1264      5296      6837      6838      6675      4309      3557      1869       562       139        46        28        25        23        33        22        27        39        34        73       221       526       555       324       111        51        67        36
        0         6         7        39        55       126        60        86       140        91        68        85       137       211        96        32        70        41        70       214       701      1755      8853     25124     26383     13487      6507      4062      2704      1247       318       112        32        21        16        18        31        17        27        38        40       135       338       488       453       293       131        57        40        25
        0         0        10        13        24        80        45        99        40        85        54        34        65        89        41        34        77        35        86       225      1158      5371     21951     28133     23401     14849      6876      2880       997       335        89        37         9        17        14        10         8        17        21        70       145       226       337       333       340       160        62        37        16        38
        3        12        14        27        78        75        82       102        96       141        63        53       105        86        68        63        74        88       161       859      5234     32011     79487     61617     33731     15441      7495      3719      1328       279       186       179        57         7        15         9         7        37       178       507       655       503       303       194       132        80        53        23        36        35
       17        31        58        69       135       133       210       227       203       209       139       154       169       164       130       138       119       163       651     10388     46692    134864    160438     87357     36625     20321     11606      5316      1680      1362      1907      1862       636       146        21         9        70       176       507      1102      1236       785       304       139       163       106        89        85        79        42
        0        11        24        27        65        74        85        84       102        96        58       170        71        55        55        24        73       146      3724     54070    237854    411477    290171    122730     42277     15655      4834      1418      1747      3897      2754       845       245        74        42       131       237       361       585       998      1242       552       263       168       171       119       112        79        36        48
        0         1         7        18        17        67        17        14        27        56        31        66         8        32         3        28        38       362     20698    212009    652833    806019    462677    162420     45105     14840      1863       522       200       157       129        56        61       106        91        93       152       250       352       705      1009       532       273       246       306       235       188       111        64        36
        0         0        26        57        57       119        32        45       108       265        60        35        36        48        20        17        63      1317     55470    505400   1250335   1096381    464446     94947     21804     12654      1412       280        59        14         5        15        92        72       154       231       302       383       365       512       632       406       336       532       467       400       257       137        33        19
        0         5        20        78        94        92        33        50       148       217        27        46        37        74        25        20       118      6022    169570    984438   1612744   1074684    398587     71789     11646      5231      1073       378       177        35        21        56        79       352       752       430       357       223       191       285       540       396       679       516       483       329       118        47        32         6
        0        26        85       147        60       145        29        76       460       182         9        23        60        15        10        42       287     23597    397070   1568182   1823546    941896    240918     40042      9482      1239       278       202        38        22        14        46        18       154       257       159        79       102       129       299       469       474       631       546       350       164       122        20        34        13
        0        10       104       138        36       108        28        66       608       315        43        11        29        18        33        26       792     69388    775051   1942415   1593052    664853    149677     28467      5067       316       136       139        68       252       369        62        11        22        21        20        11        59       113       365       662       677       565       485       266       124        46        16        11         6
        0        13         5         9         4        20         4        29       161       146        25        10        20         7        20        54      4268    190032   1299794   2233877   1458139    455108     81409     19707      2431        94       148       203       164       945      1115       203         8         1         2         7         3        74       243       518       799       766       611       280       165        56        24         4         5         4
        1        43         0        17         0        26        14        17       122        97        15         1         9         0        15       148     19123    418034   1696058   2111859   1121877    293374     66478     23775      3180       309       278       367       282       712       796       225         3         8         4         2        53       134       346       496       690       498       326       170        57        37        24         0         8        22
        4        18         9        16         2         8        10        32        71       135        19         5        15         3        34       398     56212    775652   1930867   1658155    697778    216496     56774     18104      3295      1383       492       161       125       545       645       156        10         3         3         9        27       146       399       583       535       349       220       105        31        40        16        12         7         8
        0         8         1        10         0         0         4        19        47        56         4         2         3         5        23      1088    117540   1186256   1933687   1192210    440300    142232     41701     12899      2278      1093       444       171        71       357       404        74         0         4         7         0        71       225       406       483       328       265       177        66        51        16        16         8         0         9
        8         4        31        15         4         8         1        23        26        19         4         1        11         3        51      4156    211006   1351491   1749012    932215    332903     95876     29651      9641      1322       618       470       169        53       175       187        40         3         0         0        18        65       171       254       238       222       163       142        40        36        20         4         8         0         1
        8         4         7        17         3         3         0        27        33        27        12         0        11        23        54      6490    253413   1276651   1458658    685136    256295     76830     26560      8913      2005       786       434       169        44       103       107        25         4        10         8        24        68       143       229       205       195        92        52        27        44        13        19        16        14         6
        0         3         4        20        16         4         0        26        90        35        10        10        22        18        77     13693    310359   1341728   1275833    549470    226199     62877     18939      5756      2230       780       360       165        73        44        47        12         3        14        22        57       166       283       316       235       128       113        67        45        16         3        18         0         4         7
        0         4         5         2         8         5         1        54        59        56        14        10         9        21       130     17434    374997   1306535   1132012    465900    138865     50318     13420      4948      1867       656       333        88        29        23        48         3         2         1        29        44       125       301       278       201        98        83        27        40        12         8         4         4         5         2
        1         5         9         1         8        29        17        63        61        17        19         8        26        38       312     31206    446494   1268645   1019249    355616    106610     36717      9579      3934      1584       459       267       136        34        37        26         5         8         5        20        64       125       216       236       175        84        41        36        21         6         8         8         4         4         0
        0         6         3         7         0        30        11       102        32        13        30         9        25        29       433     34245    473932   1257691    848823    265163     94086     27390      7443      3097      1226       460       241       255        77        29        14         2         4        10        19        90       198       248       224       156       104        35        20        10         8         4         0         8         0         0
        0         3         0         0         0         0         5        44        18        19        16        11         0        30       641     42968    501376   1095409    753557    212642     79591     22601      5748      2433       892       385       282       289       103        12        13         2         0        16        38       103       162       226       165       119        90        46        25         8         6         4         1         0         2         7
        1         6         6         0        14        13        21        85        44        14        12         5        25        36       584     50950    537465    986319    596648    151929     51383     16226      4826      1801       731       349       328       207        65        12         4         0         4         3        78       147       175       164       183        47        62        33         8         1         2         4         0         8         0         4
        0         2         0         3        21         0        11        57        23         9         4        13        12        30       677     61719    515205    896203    448734    104843     34263     11153      3526      1260       554       358       463       169        49         8         4         0         5         8        52       114       217       128       139        60        19         4        13        12        11         6        18         0         0         1
        0         2         2         0        10        13        11        33        28        18        13        14        17        64      1199     88112    562726    701467    307583     72428     27567      8899      2919       943       426       428       592       292        61         4        11         0         3        25        40        75       125       126        64        50        16         8         4        11         8         4         0         4         0         1
        0         1         0         7         7         6         4        33        31        21        14        11        13        48      2561    139216    623769    585199    233450     51662     19506      7387      2558       714       316       447       872       423        67        21         0         1         1        18        95        96        77        50        28         4         0         4         0         0         0         0         1         0         0         0
        4         7         9         7         4         4         6        34        39        15         5        22        17        96      9502    191813    610474    494155    186512     36586     13641      6048      2120       526       131        98        92        91        26        10         7         1         4        28        29        75        69        49        35        33         5         8         0         4         0         4         0         4         0         0
        0         0         4        13        11         4         1        26        38        10         5        10         5        72      9655    185778    552524    369195    129698     27268     10498      4595      1778       432       112        27        26        96        33        12         7         0         8        20        55        27        66        32        20        19         8         4         4         0         7         4         4         0         0         3
        0         3         1         5         4         9         5        15        15        10         4         7        19       110      9342    239154    516671    263052     92540     20853      8203      3850      1484       358        48        32        83       157        39         4         5         4         1        28        33        49        51        54        28         8         4         0        16         0         4         0         4         4         0         0
        0         1         0         3         0         0         0        15        16         5        10         6         7       103     12394    210022    378740    185333     66395     15778      6336      3380      1230       355        66        50       182       241        34        18         5         0         4        16        36        29        28        21        16         8         4         0         0         0         0         0         0         0         0         0
        0         5         2         5         6         6         0        13        12         3         9        19        28        92      8843    151230    292361    136241     48427     12675      5062      3133      1192       319        33        38       305       481        77         1         3         4         3        16        21        35        24         8         8        11         0         4         0         0         0         0         0         0         0         0
        0         0         4         0         1         4         0        17        10        13         5         6        14        53      5895    119781    231269    101801     37258     10144      4882      3002      1151       259        47        38       384       504        98         0         0         0         4         8        36        28        16        24         8         8         4         0         1         4         0         0         0         0         0         0
        0         1         1         1         6         7         1         3         0        10         2         1        12        60      6918    101236    135742     64521     27249      8537      4278      2815      1116       224        42        17       212       433        56         5         0         0         8         4        15         8        10         5         0         0         0         0         0         0         0         0         0         0         0         0
        0         4         1         1         0         2         1        12         7         4         4         6         9        63      4964     69296     84903     47497     20740      7443      3939      2645       888       124        16         5        97       326        92         7         0         0         0        12         4        12        18         0         0         4         0         0         0         0         0         0         0         0         0         0
        0         3         0         0         0         0         4        19        16         4         0         0        28        55      3046     40931     56390     34861     16413      5963      2944      2875      1025       122        23         5        29       160        30         0         0         0         0         2        14        11         6         4         4         0         0         0         0         0         0         0         0         0         0         0
        0         0         2         4         1         4         3        10        12         7         8        18        11        57      3141     29222     40667     26548     13578      4680      2968      3249      1015       101         2         9        19       133         4         0         0         4         0         3        17         7         0         0         4         0         0         0         0         0         0         0         0         0         0         0
        0         0         0         0         0         4         4         4         6         1         2         8         3        49      3699     21379     27907     19874     10695      3853      2792      3374       963        94        11         4        14        39         0         0         0         0         0         4         4         4         0         8         0         4         0         0         0         0         0         0         0         0         0         0
        0         0         4         0         0         1         0         7         3         0         0         4         1        58      3437     14013     19974     15774      7907      3052      2414      2620       670        65        12         0         3        11         2         0         0         0         0         4         4         0         4         8         0         0         4         0         0         0         0         1         0         0         0         0
        0         0         2         0         1         0         1         3         4         8         0         0        13        33      2092      9644     15536     12720      6513      2563      1812      1217       266        43         9         5         4         1         0         0         0         0         0         0         0         0         0         0         8         0         0         4         0         0         0         0         0         0         0         0
        0         0         2         0         0         6         2         8         0         1         0         0        11        36      1267      6136     11167      9806      5241      2064      1281       606       126        38        11         0         0         0         0         0         0         0         0         0         0         0         8         0         4         0         0         0         0         0         0         0         0         0         0         0
        0         1         0         1         0         0         6         8         0         4         0         1         5        14       658      3662      7388      7923      4457      1575       869       315        88        33        16         4         0         0         0         0         0         0         0         0         0         4         0         0         0         4         0         0         0         0         0         0         0         0         0         0
        0         0         1         1         0         3         2         4         9         3         2         4         1        22       382      2138      5273      7302      3759      1180       595       214        53         3         0         0         4         0         4         0         0         0         0         0         4         0         0         4         0         0         0         0         0         0         0         0         0         0         0         0
        0         0         0         2         0         4         2         4         6         8         0         1         4         6       186      1485      3841      6549      3557       847       363       150        52         8         0         0         0         4         0         0         0         0         0         0         0         0         0         4         4         0         0         0         0         0         0         0         0         0         0         0
        0         0         4         0         5         2         0         5         3         4         0         0         0        11       148      1168      3219      5663      3062       610       291       151        38         5         0         4         0         4         0         0         0         0         0         0         0         0         0         4         4         0         0         0         0         0         0         0         0         0         0         0
