        0         2         0         0         4         7         6        16        24        20        13        26        16        56        43        29        23        49        58        67        71        48        31        28        23        48        36        20        18        20        10        23        44        54        20        24        22         8         4         4         6         6         5         1         4         8         4         4         4         8
        4         1         0         8        11        15         8        17        40        27        50        46        56        43        53        35        60        51        93       111        88        54        44        27        44        21        39        45        47        48        32        52        29        53        50        35        20        30        21        12         1         4         7         6         4         4         9        10         3         1
        0         1         4         0         5        38         0        38        38        66        34        44        42        44        66        68        88        94        75       110       102        74        60        44        40        81        62        63        68        77        72        63        69        57        43        48        33        21        38         9        25        37        54        39        40        22        30        14        20        12
        1         0         4         1        10        46        35        59        23        60        68       111       117       100        78       109       165       150       121       129        97        90        78       190       452      2486      4064      1260       432       215        93        98       107       103        95        72        84        50        49        55       120       302       499       687       646       537       342       116        99        48
        0         5         6         7        12        21        60        82        94        85        66       137       120        78        85       108       183       159       132       168       107        90       147       494      1400      2800      3227      1872       852       254       118       102        68        81       104        57        47        46        43       178       340       650       966       966       887       602       320       120        72        63
        0         0         2        11        14        42        40       109       132        92        62        84       148       137        86        80       115       102       136       157        99       101       236       733      2665      6675      9636      6303      2641       803       310        99        83        47        57        69        37        61        34        74       175       253       298       259       160        98        65        57        51        97
        0        17         3        48         4        97        30       127       184        52        33        74       170       300       160        65       123        94        87       157       178       806      3722      6667      6642      6721      5307      3739      2510      1176       341       173        74        36        55        44        13        31        35        16        32        19        20        16        13        28        25        50       118       144
        0         6         4        52        31        74        58        77       150        62        36        99       147       162        91        33        74       100        99       324      1256      5666     19050     28318     17910      8576      4513      3003      1736       684       250        90        31        37        33        34        27        29        29        12        19         7        18        30        36        31        71       131       195       188
        0         4         6        16        13        46        39        68        63        47        27        68        70        71        30        33        56        95       103       554      3276     16310     26877     24633     18363      9461      4334      1584       566       171        68        36        23        19        21        18        25         9        19        13        11        11        26        50        70        97       163       235       176       123
        3         9        13        26        26        82        54        74        78        76       116        81        50        65        70        65        77       120       265      2353     17071     64868     73196     43873     22945      9465      4675      1972       530       177       236       126        74        18        19        14        13        12        14        20        35        95       270       477       515       355       222       119       103        91
       21        27        47        53        83       106       133       195       198       173       140       200       118       124       131       120       106       265      2273     23812     90885    172926    122863     53863     25093     14478      6809      2303      1154      1337      1996      1379       549       168        53        38        30        19        35        90       184       521       721       993       935       546       315       134        99        43
        1         9        27        23        29        78        68        66       118       104        63        59       130        72        39        41        39       383     13351    116638    358798    398644    196698     67702     22628      7098      2090       960      2761      3548      1777       595       181        72        44        21        41       130       224       258       313       445       736      1025       915       452       234        97        94        32
        0         1         7        18        23        58        13         9        43        48        49        34        22        12        16        25        57      1965     55425    379137    833902    705909    301169     74126     21951      4819       715       268       162       162       100        38        27        28        26        58        99       159       155       145       223       424       764       999       797       485       176       120        57        32
        0         0        26        61        53       128        27        46       164       231        40        39        25        56        10        25       126      5291    134925    817024   1377559    865802    243043     38571     17182      4418       478       132        20         0         2        20        46        46        71       116       175       223       238       284       370       563       797       910       783       399       149        92        62        33
        0         5        23        98        73        96        31        66       175       178        35        34        42        64        27        33       298     18640    321544   1339917   1593217    808362    217712     25976      7672      2245       513       246        94        42        16        40        63       185       507       511       308       350       194       209       357       654       808       724       583       228        91        35        13        15
        0        40        96       125        64       143        27        98       483       131        12        44        40         9        12        31       887     51684    613204   1895056   1692293    648971    120459     19281      4168       421       276        76        13        11        33        36        30        94       174       174       108        72       123       259       410       656       725       602       323       155        56        31        18         8
        0        13       114       133        52        94        25        96       645       259        26        17        29        13        25        38      2252    117197   1030582   2110227   1413016    460247     79407     14469      1628       123       131        96       102       334       231        40        10        17        20        15        18        61       162       374       660       720       676       384       202        97        44        12         5        13
        0        14         0        13        14        10         4        44       163       130        24        22        15         4        23        52      7580    247841   1527467   2314994   1275131    312884     48965      9196       759       110       204       123       329      1157       793       105         2         1         2         1         4        95       300       516       888       792       482       266       110        56        25         9         8         1
        1        42         1        17         0        24        12        26       142        72        11         5         9         0        18       200     21333    454713   1839974   2160938    995085    219374     48364     12985      1106       262       301       316       348       781       681       101        13         2        10         4        40       104       342       614       777       402       266       168        62        32        15        19        11        18
        4        22         5        16         0        10         8        26        92       124        13        11        13         7        31       512     50421    768479   2036606   1686025    648516    170350     42005      9595      2184       726       289       110       228       608       503        88         2         6         0        12        31       142       371       596       584       360       177        91        60        26         8        17         5        11
        0         8         1        10         0         0         5        14        56        50         5         0         5         4        50      1069     94769   1109415   2041440   1251733    419820    114185     30931      6072      1408       747       237       105       133       391       288        34         4         1         4        11        68       160       404       496       340       282       153       110        33        32         8        15         4         6
       12         0        27        19         4         8         5        15        39        14         1         0         8         7        37      2940    155701   1250642   1860774   1021111    319869     79486     22129      4334       698       512       287       105        58       210       115        27         3         0         0        13        61       169       225       286       197       194        88        71        56        17         4         0         0         1
        8         4        12        12         3         3         0        26        33        25         8         4        10        26        48      4293    181093   1185844   1569098    767972    252329     65278     20070      4407      1053       588       263        78        59       108        77        20         6         4         0        20        64       160       168       212       177       143        70        45        40        14        12         6        19         0
        0         3         8        16        16         4         0        30        94        27         6        15        18        18        63      8257    229063   1242976   1414596    618192    223153     53061     13241      3880      1178       535       220        68        66        44        47         5         2         7        22        44       135       269       319       235       171       103        71        32        27        20        17        15         4         8
        0         4         3         4         8         5         1        48        62        56        13        13        12        19       100     10588    270924   1228482   1282726    521485    136462     41739      9940      3260      1100       498       149        67        31        28        25         3         0         6         9        53       121       265       279       209       112        88        44        29        19        13         7         2         0         6
        1         4         6         5         8        33        15        73        44        24        20        11        22        37       166     17609    325626   1211155   1167378    409672    106840     30870      7376      2656       863       374       158        75        26        46        19         1         0         8        20        43       113       186       199       185       139        64        33        29         8        11        18         0         4         0
        0         6         3         7         0        22        27        98        28        17        27         8        25        27       256     19493    340907   1195977   1010746    321146     93561     23125      5664      2269       702       264       281       140        47        21         8         4         6         0        18        76       204       190       166       197        74        60        36        42        29        17        12         7         6         0
        0         3         0         0         0         0         5        44        25        17        11        11         0        21       423     25253    366585   1060131    892812    268891     78578     18772      4365      1682       646       282       273       199        42         9         6         5         0         6        26        74       138       222       169       112        47        41        49        34        46        19        17         4         4         7
        1         6         6         3        11        13        18        65        66        15         8        12        24        32       322     27925    401693    966819    733353    197833     52317     13438      3604      1349       430       338       200       167        37         4         0         0         0         0        41       129       204       138       152       139        34        28        10         2        24         9         5         0         4         4
        0         2         0         3        21         0        11        56        23        10         4        13        15        18       440     33843    389683    885202    581433    139563     35077      9262      2588       828       362       472       279       130        31         1         0         3         0         1        44        78       159       153       149       104        58         1        30        12         3         4         6         1         0         4
        0         2         2         0        13        10        13        30        27        21        12        17        19        35       652     47097    437076    745623    409794     96148     27405      7725      2008       599       377       532       412       198        26         4         2         3         0        23        24        62       114       153        79        54        19         8         8         4         3         4         1         8         0         0
        0         1         0         7         6         7         4        33        36        15        13         7        13        52      1247     71238    509853    669903    317332     68876     19026      6398      1845       500       370       737       621       179        36         7         2         5         0         9        50       107        81        52        65         0         0         1         0         4         0         0         0         1         0         0
        4         7         9         7         4         4         6        31        40        14        10        11        14        69      3839    104863    525740    584029    263282     48946     14150      5025      1334       292        87        99       101        48        27         7         0         0         5         4        37        46        65        68        64        27        13         5         0         0        12         0         0         0         4         0
        0         0         8         9        11         4         1        26        29        15         6        13         3        45      3979    101975    480692    467299    185883     36047     10404      3938      1065       238        55        10        61        79        28        10         0         0         0        20        39        36        44        53        32        20         0        15         0         8         0         4         7         0         0         3
        0         3         1         5         4         9         5        13        21         4         6         9        12        97      3844    130626    492791    360406    129101     26067      8205      3363       970       178        36        47       129       104        16         5         9         0         0         5        49        25        57        64        31        17         4         8         4         8         4         4         0         0         4         0
        0         1         0         3         0         0         4        10        21         0         9         8         6        63      5139    125210    365564    262814     91098     20058      6228      2919       827       192        37        81       218       164        27        17         3         0         4         0        28        36        25        20        32        17         4         0         0         0         0         0         0         0         0         0
        0         5         2         5         6         6         0        12        13         3         9        20        26        45      3567     88164    280772    196130     66745     15297      5343      2631       783       141        12       105       429       330        15         2         0         4         0         7        24        29        30        12        20         0         3         8         0         0         0         0         0         0         0         0
        0         0         4         0         1         4         4        14         9        15         3         6        15        31      2348     65974    226595    149617     50259     12479      4907      2451       726       143        22       140       457       373        43         0         0         0         0        12        12        36        20        24        16         4         8         4         4         0         0         0         1         0         0         0
        0         1         1         1         6         7         1         1         2         8         4         5         4        55      2628     60209    148082     88230     36030      9953      4277      2401       740       121        33        75       345       270        16         0         0         0         0         8        15        10         4        12         1         0         0         0         0         0         0         0         0         0         0         0
        0         4         1         1         0         2         1        17         2         4         4         3         8        37      1991     42541     92964     61998     27642      8419      3931      2444       521        26         8        18       198       282        29         0         0         0         0         4         8        16        18         0         0         4         0         0         0         0         0         0         0         0         0         0
        0         3         0         0         0         0         4        19        16         4         0         0        16        28      1208     24553     59703     44736     21377      6549      3407      2514       514        57        19         8        77       131         3         0         0         0         0         0         6        19         4         8         4         0         0         0         0         0         0         0         0         0         0         0
        0         0         2         4         1         4         3        10        14         4         5        14        18        51      1370     19253     40904     33980     17380      5512      3467      2743       529        36         8        14        79        63         5         0         0         0         4         0         8        12         4         3         0         4         0         0         0         0         0         0         0         0         0         0
        0         0         0         0         0         4         4         5         5         1         2         2        11        45      1705     15310     28472     24394     13615      4349      3506      2788       447        57         0         9        29        19         0         0         0         0         0         0         0        12         0         0         8         0         4         0         0         0         0         0         0         0         0         0
        0         0         4         0         0         1         0         7         3         0         4         0         4        41      1655     10727     19633     18762     10327      3420      2975      2052       346        51         4         0         7         9         0         0         0         0         0         4         0         8         0         8         0         0         0         4         0         0         0         1         0         0         0         0
        0         0         2         1         0         0         1         3         8         4         4         0         5        48      1118      6553     15330     15006      8316      2989      1989       930       149        20         7         6         1         0         0         0         0         0         0         0         0         0         0         0         8         0         0         4         0         0         0         0         0         0         0         0
        0         0         2         0         0         4         4         8         0         1         0         0         6        31       648      4099     10718     11467      6609      2290      1363       461        75        15         7         1         0         0         0         0         0         0         0         0         0         0         4         4         4         0         0         0         0         0         0         0         0         0         0         0
        0         1         0         1         0         4         6         4         0         4         0         1         4         3       416      2407      6888      8707      5726      1724       769       282        59        19         3         0         0         0         0         0         0         0         0         0         0         4         0         0         0         4         0         0         0         0         0         0         0         0         0         0
        0         0         1         1         0         3         2         8         5         4         1         4         0        19       220      1379      4801      7044      5359      1403       493       183        18         3         4         0         0         0         0         4         0         0         0         0         0         4         0         0         4         0         0         0         0         0         0         0         0         0         0         0
        0         0         0         2         0         4         2         4         6         4         4         0         5        12        88       971      3386      6028      4935      1117       340       136        30         1         0         0         0         4         0         0         0         0         0         0         0         0         4         0         0         4         0         0         0         0         0         0         0         0         0         0
        0         0         4         3         2         2         0         5         7         0         0         0         0        10        74       741      2841      5057      4446       751       279       134        33         0         4         0         4         0         0         0         0         0         0         0         0         0         0         0         4         4         0         0         0         0         0         0         0         0         0         0
