        0         2         0         0         4         7         4         3        24        13        25         7        11        27        29        39        44        27        73        40        54        53        33        54        18        37        23        26        35        25        19        16        23        19        19        22        31        22        33        19        13        26         2         9         1        10        11         0         0         1
        4         1         0         8         0        22         4        15        22        27        28        44        36        54        36        39        50        29        92       102        93        62        48        35        36        25        35        44        21        34        42        46        29        48        30        31        50        41        22        28        39        16        11        38         2         6         4         0         6         4
        0         1         4         0         4        19        20        12        40        34        53        26        51        18        45        59        60        83       110       113       112        70        58        30        38        72        61        48        56        55        60        57        46        62        48        53        74        38        47        35        33        50        40        52        63        50        24        12        19        24
        1         0         0         4         8        20        47        32        46        21        59        65       118       103        85        56        97       175       148       150        88       130       117       293      1499      4164      1841       654       299       168       108        85        75        97        81        70        95        81        92        56       141       171       399       629       660       509       411       328       177        77
        0         5         3         8         9        12        26        83        72        97        57        70       127       109        85        75        71       194       154       191       181       113       283      1100      2308      3198      2277      1134       414       155       118        75        78        86        80        61        87        82        77       153       253       599       848       889       820       686       420       248       142       120
        0         0         2         9         9        29        34        86       119        68       100        48       168       121       108        52        69       116       139       149       124       184       492      1864      5405      9159      7624      3531      1220       380       153        84        83        65        73        50        44        43        71       115       128       184       345       262       206       125        83        41        41        38
        0        17        16        35        15        76        34       111       175        58        47        52       234       286        98        68        59        84       132       149       283      1826      5667      7574      6991      6010      4344      3215      1309       422       167        91        64        66        54        56        44        55        21        24        38        20        20        40        24        12        22        10        35        44
        0         6         9        44        48        70        33       128        77        66        54        80       207       122        45        63        29        86       140       481      2222     10458     26406     25966     12838      5994      3488      2105       912       300        98        57        35        69        32        23        25        33        32        22        36        14        25        27        27        19        17        60       126       106
        0         4         6        16        26        50        16        68        44        57        31        49        89        64        31        17        63        60       195      1002      6364     22388     29007     23447     13885      6448      2392       721       330        93        48        32        17        40         8         4        22        20        34         9        15        26        20        50        43        44        72       148       202       154
        3        12        13        19        28        72        68        47        48       119        88        47        95        61        57        54        74       110       432      4513     29870     78925     64629     36915     16049      6360      2643       756       228       197       165        81        54        17        45        22         8         5        22        16        61       115       210       397       491       373       213       175       117        76
       22        34        50        54        73       120       114       152       216       169       136       158       143       127       128        88       121       275      4086     34184    120955    180666    102258     40647     19538      9194      3480      1145      1383      1951      1497       600       216        79        37        45        33        30        62        86       226       409       723       932       901       594       357       185        91        62
        1         6        34        14        50        69        67        48       131        80        80        69       118        79        27        51        45       797     20065    156051    414537    374084    156657     44708     12911      3648      1243      2490      3600      2032       703       228       111        32        47        40        80       160       250       212       303       430       670       995       928       443       253       100        91        22
        0         1         7        18        25        62         7         9        48        44        51        27        25        13        21         4        88      3282     73947    460105    909223    647839    225491     43418     13995      1648       371       169       155       100        54        16        20        36        47        81        91       116       184       224       201       388       687      1016       824       475       231        94        35        17
        0         0        26        61        49       132        28        40       159       234        54        36        28        53         8        24       210      8678    172074    937688   1419936    754562    169888     26930     12602      1694       252        43         6         7        14        45        41        42        91       158       197       211       205       277       450       561       748       980       702       355       156        61        39        23
        0         5        30        87        82        83        35        60       194       169        29        58        19        81        15        36       602     26578    371396   1441824   1601320    713092    157893     17162      5067      1003       329       139        50        21        43        44       184       381       511       356       333       223       137       249       391       617       811       790       476       188       102        25         3        16
        0        27       101       137        79       122        34       110       442       155        18        29        50         8        19        32      1452     60714    660691   1971817   1682440    563713     90218     13302      1873       359       171        35         9        13        34        26        79       177       200        84        63        58       132       289       485       617       676       521       367       150        71        31         4         9
        0        20       107       133        47        98        24       125       630       249        24        15        35        24        16        57      3333    126480   1055506   2160957   1400364    410215     62299      9153       755       158       104        92       243       334        52        17        16        12        24        15        37        36       117       380       767       818       568       371       161        92        34        12         6         7
        0        13         9         5        18         6         4        56       160       120        29        14        19         6        15       132      8588    244425   1511512   2357167   1285038    290761     41290      5678       343       179       148       254       999       911       253        19         1         1         3         0        16        75       293       585       848       827       461       242       113        49        22        10         6         2
        1        42         1        17         1        23        10        26       132        88         8         4         9         2        16       234     19755    414463   1795873   2220576   1039589    212629     43190      7350       578       293       319       333       709       743       216        24         9         4         0        12        35       104       299       599       691       481       363       145        61        26        14        16        15         8
        4        18        10        15         2         8         9        34       107       104         8        10        16        15        24       580     43505    686682   2012337   1770993    692623    164608     36606      6231      1077       394       151       133       550       651       112         8         4         3         3        12        23       136       335       549       626       351       225       107        48        38        11         5        12         9
        0         8         1        10         0         0         5        11        70        40         4         2         5         4        31      1179     79522    989804   2065511   1343359    452012    109717     25372      3962       976       336       146       111       351       350        72        18         0         2         0        12        56       153       388       469       426       229       210        80        53        15         5        12        12         0
        8         4        23        23         0         8         9        23        25        16         5         0         9         2        39      2725    130584   1135940   1891694   1116439    339605     78967     18655      2672       729       412       128        76       185       146        40         1         5         0         3        13        53       157       215       262       193       227       110        99        16        16         8         6         3         1
        8         4         2        22         6         0         1        22        37        24         8         3        11        26        43      3855    153306   1093100   1606833    840210    268808     65569     16400      2892       842       434       123        29       115        91        23         6         5         0        12        12        66       165       179       211       185       110        71        46        30        35         4         9         8        14
        0         3         8        16        16         4         0        19       101        31         6        11        26         7        75      7008    201625   1146572   1473839    681475    230784     51079     11749      2919       851       382       120        39        82        43        10         0         2         4        13        61       101       221       357       257       190       112        50        53        10        24        14        14         6         4
        0         4         3         4         4         9         1        44        73        52        10        14         9        15       105      9637    243022   1152310   1340320    565409    143913     39888      8942      2756       814       292        68        57        34        33         9         4         0         6         0        33       137       213       327       210       129        77        53        22        18        10        11        10         5         0
        1         4        10         1         8        33        17        55        57        25        11        21        13        35       206     18490    293931   1142376   1224116    450641    111380     29560      7172      2017       577       249        91        45        41        24         1         5        11         0        24        36       102       181       199       183       122        75        54        29         9        11        15         1         8         0
        0         6         3         7         0        18        19       111        24        20        26        11        15        51       348     21420    312354   1127876   1067348    358321     95578     23034      5524      1717       530       228       164        84        43        14         8         4         2         5        18        69       153       180       256       175        73        53        44        32        22        23        24         4         7         0
        0         3         0         0         0         0         4        40        27        19        12         7         4        22       644     27256    336826   1007503    937680    303406     80146     18855      4237      1284       452       279       271        72        30         9         4         3         4         7        21        69       165       136       185       117        98        48        18        39        44        22        12        14         4         4
        1         6         6         0        14        10        32        74        41        22         8         6        25        60       611     31094    368550    929212    774175    223982     53316     13565      3403       911       449       301       161        55        15         4         0         0         0         0        34       161       115       174       184       119        58        20        13         9         4         6         9         7        10         0
        0         2         0         3        21         0         7        62        25         6         4         8        12        31       833     37047    364424    850842    614596    161905     36634      8897      2233       700       488       362       161        41        16         6         7         0         1         4        32        95       145       173       131       114        43        12        21         4        12         7         9         0         3         1
        0         2         2         0        17         6        11        28        38         7        23         9        20        51      1258     50734    410187    728797    433906    111514     27752      7653      1965       572       474       507       268        63        13         0         5         0         3        17        13        54       143       103       105        58        21        18         5         8         3         4         4         4         1         0
        0         1         0         7         7         7         4        21        41        21        13        11        11        58      2265     77838    481148    658029    338766     80422     19822      6048      1572       460       642       715       368        46        11         7         4         0         1        16        36        86        87        73        56         9         5         0         4         0         0         0         0         0         1         0
        4         7         9         7         4         4         4        29        36        22         8        15        14       122      5363    109147    507039    574773    275685     59038     14284      4832      1150       196        89        96        63        32        20         4         3         1         0         0        29        60        85        60        56        28         5         4         8         4         6         0         0         0         0         4
        0         0         5        12        10         5         0        28        35         8         8        11         8        65      5628    107327    464445    458315    197376     42870     10689      3802       924       146        50        36        54        53        15         2         6         0         0         4        43        43        56        53        17        27         8         8         4         0         8         0         7         0         0         3
        0         3         4         2         4         9         4        14        21         6         5         6        23        97      6906    141219    471132    356550    135877     31380      8340      3241       801       118        32       104       137        40         4         3         4         0         0         5        33        53        40        49        44        24         4         8         0        12         0         4         4         4         0         0
        0         1         0         3         0         0         0        15        16         5         4        12        16       139      7959    131030    349205    262250     96490     22842      6642      2670       776       102        67       222       182        48         6        12         7         0         4         8        36        36        16        22        12        20         8         0         0         4         0         0         0         0         0         0
        0         5         2         5         6         6         0        11        15         5         6        19        22        96      5517     93563    268371    195044     70520     17700      5461      2627       645        87        78       302       418        81         5         1         0         0         3         7        20        39        24        13        12        11         4         4         0         0         0         0         0         0         0         1
        0         0         4         0         1         4         0        15        10        17         3         3        13        73      3740     70835    215525    149695     53164     14330      5031      2452       620        80        84       429       442        67         3         0         0         0         0         4        16        44        20        20        16        12         4         0         0         4         1         0         0         0         0         0
        0         1         1         1         2        11         1         1         2         8         4         5         4       117      4408     63648    138126     88722     38994     11274      4393      2397       582        96        50       217       375        63         3         0         0         0         4         4         8        11         6        16         0         1         0         0         0         0         0         0         0         0         0         0
        0         4         1         1         0         2         0        17         3         4         4         6         4        77      3342     44826     85961     62444     29786      9179      4139      2339       390        36        24       135       310        57         5         0         0         0         4         0         8         0        18        16         0         4         0         0         0         0         0         0         0         0         0         0
        0         3         0         0         0         0         4        23        16         0         0         3        21        42      2122     25551     56307     43856     22921      7498      3401      2421       491        39         8        59       134        26         0         0         0         0         0         0         8        15        14         0         4         0         0         0         0         0         0         0         0         0         0         0
        0         0         2         4         1         4         0        13        12         7         0        18        17        72      2388     19298     38604     33457     18686      5884      3843      2591       381        26        10        70        76         9         0         0         0         4         0         4         7         8         8         0         0         4         0         0         0         0         0         0         0         0         0         0
        0         0         0         0         0         4         0         6         8         1         2         5         8       101      2815     14679     26773     24407     14345      4846      3781      2503       404        34         7        19        27         4         0         0         0         0         0         0         4         0         8         8         0         0         4         0         0         0         0         0         0         0         0         0
        0         0         4         0         1         0         0         5         5         0         4         0         1       130      2588     10100     18237     18621     11211      3848      3013      1974       258        14         2         7         5         4         0         0         0         0         0         0         4         0         8         4         4         0         4         0         0         0         1         0         0         0         0         0
        0         0         2         1         0         0         0         4         4         8         0         4         9        66      1657      6742     13947     14420      9265      3417      1922       828       168        16         9         1         0         0         0         0         0         0         0         0         0         0         0         0         0         8         0         4         0         0         0         0         0         0         0         0
        0         0         2         0         0         6         2         8         0         0         1         0         8        50       953      4010      9837     11214      7367      2550      1282       427        76        12         4         0         0         0         0         0         0         0         0         0         0         4         0         0         4         0         4         0         0         0         0         0         0         0         0         0
        0         1         0         1         0         4         2         7         1         4         0         1         1        20       563      2386      6358      8201      6331      2072       769       246        50         6         4         0         0         0         0         0         0         0         0         0         0         0         4         0         0         4         0         0         0         0         0         0         0         0         0         0
        0         0         1         1         3         0         2         8         4         3         7         0         1        18       270      1451      4348      6508      5986      1637       536       147        20         0         4         0         0         0         0         4         0         0         0         0         0         4         0         0         4         0         0         0         0         0         0         0         0         0         0         0
        0         0         0         2         0         4         2         4         9         1         4         0         5         6       157       995      3157      5357      5544      1338       365       111        14         0         0         0         0         4         0         0         0         0         0         0         0         0         4         4         0         0         0         0         0         0         0         0         0         0         0         0
        0         0         4         3         2         2         0         5         7         0         0         0         2        10        95       628      2731      4410      4916      1148       298       111        17         4         0         4         0         0         0         0         0         0         0         0         0         0         0         0         4         4         0         0         0         0         0         0         0         0         0         0
