        0         2         0         0         4         7         3         4         9        16        17        16         7        12        21        14        28        61        55        68        50        31        21        25        32        22        37        20        21        26        30        17        31        19        36        18        13        15         9        13        36        25        31        22        16        12        12         7         9        10
        4         1         4         4         0        21         5         7        17         9        20        46        20        45        28        60        21        39        85        95        64        63        32        58        29        39        35        24        38        25        29        27        33        36        35        24        24        52        33        26        29        21        36        31        34        25        21        19        16        12
        0         1         0         4         4        15        16        16        20        22        26        48        40        45        22        32        39        50       100       103       131        80        47        37        64        49        36        40        57        73        45        28        51        28        71        53        26        63        50        53        56        68        80        68        74        38        27        48        28        14
        1         0         4         0         4        20        29        35        37        34        19        67        49        88       100        91        74        84       143       175       133       121       233       739      3297      3129       789       294       201       154       142       123        91        96        92        71        45        76       120       189       290       414       553       523       497       425       320       234       120        89
        0         5         3         4         9         5        30        56        69        60        76        55        80        98       104        63        71        88       184       216       188       255       586      1695      3101      2800      1569       496       198       161       158       107        63        58        87        61        78       105       162       401       677       715       776       752       704       530       289       179       112        94
        0         0         5         7        17        23        36        58       101        58        84        88       104       157        83        64        59       106        91       135       206       363       914      3382      7778      9567      5387      1660       519       204       142        91        68        39        81        41        58       100        95       131       215       339       226       190       154       141        70        46        67        21
        0        17        25        30        24        59        33       177        95        62        40       106       210       244        89        50        59        70        94       184       438      2190      6700      8768      7318      5594      3820      1831       672       306       135        74        69        71        53        43        34        46        52        48        51        29        19        35        19        21        26        34        46        44
        0         6        13        55        48        53        41       113        81        50        61       124       188        94        44        33        56        79        93       456      2601     11711     28436     26531     11750      5136      2777      1231       454       111        70        56        46        51        42        43        31        26        24        18        39        33        19        29        28        22        60        53        91        94
        0         4        10        28        13        47        39        51        45        43        46        44        60        64        38        30        44        60       152      1094      6939     23539     30697     24761     12476      4540      1388       386       109        98        70        65        34        22        37        14        12        18        24        15        26        42        35        37        53        72       100       146       156       139
        6        13        11        31        53        48        55        52        70        92        80        49        52        81        68        60        74       104       451      5026     31374     78020     69430     36060     14039      4927      1488       375       260       162        86        54        31        31        20        34        11        13        52        77       139       279       367       384       356       200       149       122        83        48
       21        37        57        58        88        96       142       164       203       149       155       135       106       151       121       116       119       295      3657     31599    118497    186125    110363     40830     16247      6416      2044      1702      1895      1533       596       176        68        42        59        25        62        66       204       334       482       803       821       726       510       341       182        88        56        45
        2        22        22        22        61        65        57        73       104        86        86       110        89        62        23        36        79       900     16440    131166    403169    407067    170877     42166      9958      2507      2364      3640      2385       793       275        98        33        68        87       127       212       235       315       321       430       707       896       744       384       248       131        82        35        28
        0         1         7        18        23        59        14         0        45        39        74        25        12        11        32        28       153      3155     56313    387502    900589    727235    246965     44241     11685      1350       313       180       122        40         9        20        35        50       104        99       135       159       167       244       469       709       791       709       576       258       158        62        27        16
        0         4        21        64        35       144        28        25       165       240        59        36        26        51        10        24       421      9002    137161    798263   1443196    867718    204477     32063     10929      1171       140        17        12        11        27        59        93       144       199       177       197       168       253       246       389       649       840       723       613       325       107        54        42        27
        0         1        28        92        84        84        37        41       204       158        49        38        34        80        15        77      1502     27307    290066   1239583   1695407    855494    199826     22161      4010       736       195       100        37        29        90       250       499       484       363       253       151       106       136       221       379       612       818       801       401       159        73        23        24        19
        0        24       112       124        63       143        33        76       440       187        18        38        34        20        21        76      2733     55598    515761   1740386   1855471    738968    121625     14113      1722       264        78        33        18        12        39       122       192       163        91        52        44        59       108       208       456       652       714       597       332       150        44        16         9         8
        0        18       119       119        30       113        33       129       565       292        40        24        21         9        46       187      4927    107105    851184   2030273   1600687    539892     84346      9840       736       165       113       256       261       104        25        27        17        19        19        13        28        46       100       260       678       770       664       495       190       106        20        18         4         1
        0        13         5         9         8        16        10        51       144       148        12        20        17         6        21       490     11478    204009   1250436   2281663   1515131    417892     56732      6650       539       187       268       879       951       311        56        11         6         9         1        14        16        55       173       479       833       828       605       300       147        49        33        10         2         1
        1        42         1        17         1        21        12        19       110       111        18         0         5         6        19       475     21462    340589   1538465   2210771   1274590    307515     53128      6844       587       271       447       672       733       274        53         3         6         1         0        16        24        98       310       506       704       489       359       204        79        31        16        12        11         8
        4        18         9        16         0        10        11        23       105       111        16        10        11        14        27      1063     47133    583427   1806799   1850704    862577    214121     42684      6317       665       213       209       515       595       171        41         6         4         0         6        14        27       114       262       504       597       434       281       110        78        37        11         8         2         4
        0         8         1        10         0         0         5        15        57        42        11         0         4        17        20      2352     88300    874191   1941110   1435649    556627    138848     29402      4507       720       162       109       337       345       111        14        11         0         4         2         1        82       125       295       478       398       340       212        94        46        21        12         0         0        19
        4         8        26        20         4         8         5        11        36        21         0         1         5        16        73      5151    147011   1045438   1799893   1186561    409424     99132     21452      3370       793       241        91       138       203        48        10         3         0         0         0        11        74       146       184       261       217       202       145        89        33        15         4         1         0         0
        8         4         5        19         6         0         2        28        28        27         7         0        10        28       157      7600    175975   1028737   1532286    895605    310370     79286     18346      2840       876       270        77        97       117        32         4         3         8         0         8        24        60        91       249       182       147       150       106        33        43        32         6         4         8        12
        0         3         6        18        16         4         0        33       100        17         4        22        17        12       204     12930    234836   1084537   1423721    716903    255357     61625     14297      3113       694       207        99        52        42        15        16         1         5         7        22        38       103       265       298       282       170       106        85        36        34        17         7        13         4         8
        0         4         3         4         1         8         5        52        66        44        19         8        13        19       435     20628    292569   1092832   1291136    584394    164010     46978     11190      2513       607       172        35        36        51        15         4         2         0         4        23        33       117       279       242       254       118        73        27        41        40         1         4         2         6         4
        1         5         9         1        11        29        10        67        46        30        16        18        19        40      1386     37875    353802   1095789   1162094    461853    122241     34633      8461      1992       490       151        56        30        45         8         7         5         4         4        21        61       113       137       250       196        95        68        36        37        15         4         4         4         4         0
        0         6         3         7         0        22        18        90        41        21        18        17        19        69      1944     45062    386038   1078452   1001770    363020    101924     27285      6611      1575       437       242       132        38        29         8         0         8        11         6        31        71       156       250       192       140       106        45        46        45        13        12         4         8         4         0
        0         3         0         0         0         0         9        30        33        21         5        15         5        35      2868     55692    406097    959162    876440    304623     83556     23125      5187      1277       424       286       147        29        12         4         0         6        10        14        40        65       152       177       167       117        79        51        47        38        28        14         0         8         8         0
        1         6         6         0        14        13        26        76        36        27        10        10        22       113      3349     68291    434027    882924    707120    225766     56607     15747      4181       923       449       212       111        38         0         4         0         0         1        20        79       110       183       169       124       109        42        25        20        13        11         5         4         4         2         2
        0         2         0         3        21         0         9        55        27         5         8        12         5       110      4403     79605    432183    803757    542369    162558     38845     10914      2774       843       465       285        67        21         9        10         6         0         1        25        58        74       155       143       160        91        42        17         4        17         5         6         3         4         3         1
        0         2         2         0        13        10        13        28        25        21        12        17        39       188      6992    106905    470361    657703    378960    111476     29900      9096      2318       677       559       420       106        19        15         0         5         0        11         4        35        68       124       112        86        64        20        12         4         4         3        12         5         0         0         0
        0         1         0         7         7         7         3        23        46        15        14        11        12       321     11634    160794    517326    573514    290834     80835     21725      7145      1945       670       796       518       114        27        18         2         1         0         3        47        60        77        61        63        38        12         8         4         0         0         0         0         0         1         0         0
        4         7         9         7         3         5        10        30        44         8        11        16        16       821     22324    206269    530929    477659    229336     61258     15650      5571      1535       296       125        91        38        16         7         4         0         5         8        19        38        38        62        57        64        24         8         9         4         8         0         0         0         0         0         4
        0         0         4        13         6         7         6        18        45         4        12         3        12       791     24238    202383    476994    360394    162883     46150     11980      4402      1163       229        43        76        43        21         7         4         2         0         0        16        35        32        61        40        28        20        15        12         0         0         4         3         8         0         3         4
        0         3         1         5         0        11         7        14        20         6         8         5        59      1411     34711    248580    441531    269088    111703     34318      9515      3639      1007       152        69       139        59         7        14         0         4         0        17        16        17        57        54        51        12        24         8         8         8         0         4         0         4         0         4         0
        0         1         0         3         0         0         0        14        21         1        10         3        56      1569     35109    204661    323694    197509     80999     25164      7209      3087       966       172       137       255        53        14         6         5         0         3         0        12        20        32        49        17        12        12         8         0         0         0         0         0         0         0         0         0
        0         5         2         5         6         2         4        11        15         3         9        19        38      1175     25112    150906    249755    143446     60943     18396      6128      2747       875       158       252       457       143         5         1         3         0         3         4        12        31         9        16        24        15        12         4         4         0         0         0         0         0         4         0         1
        0         0         4         0         1         4         0        17         4        22         2         5        64       817     19926    122462    194362    107371     46411     15286      5464      2439       870       158       305       481       151        13         1         0         0         0         4        16        24         4        16        40        12         8        12         0         0         4         1         0         0         0         0         0
        0         1         1         1         6         3         5         1         3         7         8         0        71      1226     19928     94442    115177     68028     33798     11822      4936      2460       730       158       208       363       109        14         0         0         0         0         8         8         5        16         4         4         5         0         0         0         0         0         0         0         0         0         0         0
        0         4         1         1         0         2         0        17         3         4         4         3        24       964     15563     60110     73256     49091     26393      9594      4356      2488       651        53        92       273       138        11         0         0         0         0         4         8         2        20         8         4         0         4         0         0         0         0         0         0         0         0         0         0
        0         3         0         0         0         0        12         6        21         4         4         7        22       567      9146     35732     48338     35505     20644      7741      3570      2595       733        72        58       131        31         4         0         0         0         0         0         1        10         0        18         8         4         0         0         0         0         0         0         0         0         0         0         0
        0         0         2         4         1         4         0        14         7        11        12        10        33       702      8101     24949     33970     26653     17074      6705      3557      2788       659        60        36        91        26         4         0         0         0         0         4         4         3        12         4         8         0         0         0         0         0         0         0         0         0         0         0         0
        0         0         0         0         0         4         4         4         6         1         2         8        59      1059      7239     17093     24080     19542     13171      5513      3485      2713       692        40        31        27         6         0         0         0         0         0         0         0         8         0         4         0         4         8         0         0         0         0         0         0         0         0         0         0
        0         0         4         0         0         1         0         5         5         0         4         0        50      1160      5710     10953     16739     15285     10472      4129      2883      2084       472        57         7        11         1         0         0         0         4         0         0         0         0         8         0         4         4         4         0         0         0         0         1         0         0         0         0         0
        0         0         2         0         1         0         0         4         4         8         0         0        33       604      3522      7893     12501     12396      8726      3679      1949       915       231        12         9         1         0         0         0         0         0         0         0         0         0         0         0         0         4         8         0         0         0         0         0         0         0         0         0         0
        0         0         2         0         0         4         3         9         0         1         0         0        27       400      2049      5166      8928      9376      7096      2805      1253       577        90        19         1         3         0         0         0         0         0         0         0         0         0         0         4         4         0         0         4         0         0         0         0         0         0         0         0         0
        0         1         0         1         0         4         4         6         0         4         0         5        15       269      1125      3000      6099      7211      5943      2222       735       278        89        13         4         0         0         0         0         0         0         0         0         0         4         0         0         0         0         4         0         0         0         0         0         0         0         0         0         0
        0         0         1         1         0         3         2         8         5         4         5         0         5       142       581      1767      4384      5773      5740      1769       535       183        35         8         4         0         0         0         0         4         0         0         0         4         0         0         0         0         0         4         0         0         0         0         0         0         0         0         0         0
        0         0         0         2         0         0         6         4         6         4         4         1         8        71       403      1188      3195      4706      5159      1755       394       137        30         2         0         0         0         4         0         0         0         0         0         0         0         0         0         0         8         0         0         0         0         0         0         0         0         0         0         0
        0         0         4         3         0         4         0         8         4         0         0         0        11        36       243       984      2758      3804      4520      1551       302       128        26         7         0         4         0         0         0         0         0         0         0         0         0         0         0         0         0         0         4         4         0         0         0         0         0         0         0         0
