        0         2         0         0         0         4        11         0         7         4         1         9         0        19         7        17        21        19        12        20        39        17        49        20        31        11        16        23        14        31        15        16        18         9        16         9        27        13         2         8        21        18         7        25        29         9        31         9        22         7
        0         5         0         8         4         4         6        12        12        12         5        12         9        11        31        27        20        24        22        57        58        63        35        43        25        34        23        13        32        38         8        14        28        22        23        22        22        17        23        30        20        18        11        28        38        14        26        19        24        41
        0         1         0         4         0         8        18        17        14        20         0        11        21        19        24        35        31        35        34        42        51        86        60        55        58        33        31        41        33        35        36        26        49        45        54        46        60        31        18        18        32        26        49        46        46        40        48        38        47        53
        1         0         0         4         0         5        13        29        31        24        23        18        41        36        44        60        50        81        95        57        84       104       130        83        68        88       117       113       354       497      1638      2549      1858       875       428       238       172       124        89       102       109       115       123       207       213       271       362       421       405       364
        0         5         3         3         5         4        13        14        44        62        48        58        64        49        58        69        69        80        61        93       139       152       134        97        85       115       174       346       637      1045      1585      1909      1891      1389       860       530       351       169       107       131       153       192       169       371       468       531       566       566       522       531
        0         0         1         4        15        10        13        17        45        84        74        72        52        74        76       108       127        77        62        67        92       104       104        89       221       311       581      1028      1614      2433      3280      4751      5362      4522      3023      1611       797       340       153       111        95       106       109       135       185       169       184       188       157       143
        0         9         9        30        16        33        44        40        80       118       113        25        61        78       135       197       133       105        57        45       104       117       211       455      1001      2282      3625      4837      4771      4032      3791      3921      3465      2500      1511       787       404       198       117        95        41        35        38        46        39        16        29        38        43        37
        0         7        16        25        47        38        53        34        55        94        89        47        79        95       123       106        73        80        64        80       137       350       943      2579      5368     10720     15867     17401     13915      9311      5806      4028      2208      1396       726       324       178       102        26        31        55        33        25        23        27        17        43        34        42        30
        8        13         4        29        36        35        39        29        26        32        31        72        45        35        72        56        70        45        58        98       244       655      1732      4543      9148     14038     18301     18767     15404     11130      6206      3255      1570       649       294       147        48        19        27        34        22        14        14        25        43        42        45        51        89        89
        6        20        22        61        41        43        70        96        64        64        49        62        60        51        96       105        74        62       127       299      1078      2961      8316     18656     34517     46113     44208     35559     24697     13608      6534      2888      1182       525       288       151        80        30        34        32        25        60       103       177       178       230       312       281       289       158
       49        50        52       107        86       171       150       172       189       174       133       139        85       142       133       168       118       218       751      3062      9513     23898     50439     82202     99634     91753     67229     41363     23647     12247      6325      2985      2042      1595      1370      1012       501       268       185       113       106       154       253       394       521       587       648       552       372       279
        5        35        15        58        63        52        72        92        68       122        57       135        62        56        43        64       170       579      2911     13286     43842    110047    200717    258672    236695    163643     88268     39874     16220      6548      3220      2489      2503      1954      1345       732       440       295       223       223       173       223       200       317       433       528       499       497       317       288
        0         1         4        23        17        25        35        25         6        36        48        27        35        46        33        47       412      2706     14031     54289    157427    330826    478324    503221    414094    244749    109451     40624     15495      9122      3625       863       297       202       127        87        72        85       128       147       126       174       227       348       409       580       518       486       429       283
        4         1        20        53        40        77       103        43        67       127       140        75        50        35        58       244      1621      9854     45857    159508    408004    696109    800283    671562    410228    190193     67212     21298     10217      7883      3315       899       219        90        82        33        68       143       209       182       183       311       296       390       443       607       648       527       355       363
        0         9        18        74        77        81        69        56        97       111       108        58        51        46       135       868      5884     30824    120549    336467    671013    944468    926231    679012    387247    159902     49542     14831      5885      2225       818       316       194       167       164       233       295       412       421       252       379       327       333       366       413       521       476       436       329       211
        4        20       117       102        52       111        70       122       204       267       112        35        41        47       275      2699     16973     79364    258481    603964    992179   1136906    941903    601843    277793     93451     28396      8822      2443       709       216       118       121       168        84       103       123       212       143       221       194       316       265       427       424       422       360       310       152       142
        0        13        80       153        40        88        52       126       303       348       201        74        12        98       877      7787     44365    172080    474439    900155   1165183   1066994    751783    400937    161773     55594     18986      6041      1621       474       195       181       287       212       104        40        49        65       121       188       282       326       401       484       373       313       285       203       149       106
        0        14         3        10         0        25        13        58        69       127        75        27        25       349      2729     20594     99819    335272    764259   1178147   1267294   1013505    623923    284177    102161     34810     12397      4234      1021       394       391       622       749       506       249       113        74       128       194       276       402       418       461       424       403       244       185       147        92        54
        1        30        13        14         3        14        20        25        46       110        64        15        43       637      7237     43269    181022    513212    970846   1263776   1178349    838960    456168    191392     69579     25544      9933      3231       929       403       461       571       563       453       249       144        96       124       262       294       357       351       330       318       147       183       123        86        40        39
        4        16         6        13        15         2         9        26        43       101        67        48       224      2485     18947     97148    329459    738314   1093532   1161754    926405    566037    281370    121639     47634     19068      7686      2697       749       347       262       389       590       319       198        83       120       169       176       237       340       294       255       267       193       123       111        64        48         6
        0         8         3         7         1         1         3        14        44        39        26        39       451      4947     35584    170070    515640    979685   1147845    944447    621586    348363    169742     77477     32662     14259      5858      2077       625       231       189       293       361       285       143       138       150       244       222       229       242       200       168       160        88        72        54        36        24        17
        4         8        26        20         0         8         5        11        29        22        18        52       953      9179     57039    241405    641321   1018929   1056222    783523    460253    240263    115465     52396     23870     10403      4535      1683       580       202       129       186       245       147       118        88       132       156       179       121       117       101        87       102        58        68        23        40        32        12
        8         4         4        23         0         1         8        27        15        32        14        91      1251     11731     69993    270945    642452    913074    863071    592538    345849    178801     86328     42561     19486      8452      3563      1424       431       146        93       121       103       128       108       139        96       104       112       115       103       107        87        69        53        24        43        21        29        21
        0         3         8        24        12         0         6        48        65        28        20       208      2466     19677    100830    334568    688455    885672    752566    485711    273511    135950     67350     33349     16210      7397      2806      1089       369        95        93        82       110       128       161       193       201       202       127       139       108        57        56        40        57        45        46        23        15         4
        0         4         3         4         4        13        25        40        57        50        26       368      4420     31352    138608    394281    699040    819929    655887    380838    190347     94316     50101     26411     12602      5506      2201       793       262        69        60        73       127       127       147       123       202       108       116       123        77        88        31        50        31        29         8         6         7        11
        1         5         9         5         9        32        32        53        23        35        67       840      7160     44585    178461    439458    714363    769543    546426    294109    141891     71109     37589     19743      8922      4023      1590       560       204        59        39        78        67       111       156       154       129       134       126        76        39        68        25        23        35        44        13        11        24        16
        0         9         0         7         7        24        48        54        40        30        68      1028      9100     55077    202977    469192    712023    687188    436275    224710    108843     54316     27678     13974      6965      2903      1271       470       120        58        54       138       159       182       193       197       139       100        78        78        28        36        21        37        33        19        47        28        15         7
        0         3         0         0         0         8        14        34         8        26       125      1656     13067     67472    221333    454824    630357    595832    378051    184637     86437     42556     21353     11463      5493      2262      1007       341        88        69       103       151       170       240       158       153       108       112        70        55        19        18        27        34        22        50        15        24        32         8
        1         6         6         0        17        19        43        45        47        51       335      2572     18255     84329    243981    455449    566632    474817    284175    138409     66327     32381     16220      8429      3994      1806       753       240       118        90       114       205       196       220       198       129       122        57        56        47        35        27        15         5        19         5        14        11        13        13
        0         2         0        16         8         6        12        46        26        44       351      3426     21779     94243    253102    443221    501220    372582    206641     94554     42984     22129     11402      5773      2774      1344       518       197       100        91       192       257       244       243       192        95        97        71        45        46        13        26        20         8        14         8        21         0        14        12
        0         2         2         5        12        10        15        42        28        66       539      4971     30043    116576    277534    406487    390970    271506    145027     64510     30587     17215      9675      4754      2199      1174       422       153       125       120       203       298       323       291       204       120        76        64        16        22        19        12         0        12        12         4         4         8         8         4
        0         1         0         7         7         7        18        26        27       123       920      7636     42633    153275    312900    393305    333827    213420    108209     49558     23287     12783      7169      3823      1904      1050       431       166       107       206       266       401       481       349       227       120        35         8         5         4         8         4         5         1         0         0         5         0         4         8
        4         8         6         4         9         8        18        30        50       222      1745     13081     61908    184937    327399    353764    275734    168677     85276     40286     18248      9135      5377      3233      1523       682       318       110        32        56        81        89        83        95        66        40        40        24        17         8         0         4         0         0         8         4        12         7         4         4
        0         0         9         4        13         6        11        27        55       184      1738     12986     64490    181660    296136    287382    203899    120170     61844     30710     13913      7340      4420      2553      1324       525       268       108        42        24        74        63        54        41        20        42        16        13         0         8         4        15         0         4         0         4         4         7         8         4
        0         3         0        10         0         3         9        30        41       297      2687     18480     80109    208639    286074    236218    148486     84150     43494     22917     10954      5710      3689      2017      1112       427       176        76        75        86        93        90        31        34        45        25        20        12         7         8         8         0         8         4         4         7         8         4         0         0
        0         1         0         0         3         0         4        28        52       407      2958     18171     69814    162460    214496    174915    108524     60582     32452     16563      8202      4501      2815      1673       940       467       161        71       123       169       126        67        50        24        19         4         8        24         5         0         4         0         0         0         0         0         0         0         8         0
        0         5         2         5         2         8         3        27        70       361      2194     12927     52529    122257    161179    130363     80748     45990     24014     11985      5844      3717      2482      1597       753       458       191        78       244       274       210        98        35        40        12        18        12        12         0         7         0         0         4         0         4         0         0         0         0         8
        0         4         0         0         1         4        15        13        76       265      1752     10639     43071     98204    125853     99039     60435     34319     18892      9426      5220      3314      2353      1506       734       310       164       115       223       331       246       129        45        29        13         4        12         0         1         8         4         0         8         4         0         0         0         0         0         8
        0         2         0         1         2         4         9         4        24       276      1855      9809     36274     69181     77292     60439     39972     24436     13390      7459      4516      3204      2246      1307       652       273       142        84       121       178       220       107        39        19        10         0         0         4         5         0         0         0         0         0         0         0         0         4         4         0
        0         3         2         0         1         6         2        17         8       173      1294      6909     23901     44881     50156     40877     27934     18395     10983      6260      3951      2614      2061      1255       586       243        39        51        69       151       178        94        26         9         1         8         4         0         0         4         0         0         0         0         0         0         0         0         0         0
        0         3         0         0         0         0        11        14        30       125       740      4183     14254     27602     32201     27473     20455     14455      8773      5050      3169      2309      1886      1141       553       231        65        12        41        65        75        38        14         7         8         0         0         0         0         4         0         0         0         0         0         0         0         0         0         0
        0         2         0         4         1         2         7         9        38       106       692      3508     11132     19112     22713     20149     15588     11340      7396      4519      2765      2264      1814      1311       550       239        40        29        45        52        47        18        11         1         0         0         0         0         0         4         0         0         0         0         0         0         0         0         0         0
        0         0         0         0         0         4         3         4        13        98       737      3499      8531     13264     15841     14664     11407      8700      5714      3669      2508      2282      1941      1142       489       141        48        20         9        19        23         3         1         9         4         4         0         4         4         4         0         0         0         0         0         0         0         0         0         0
        0         0         4         0         0         1         1         6         6        66       683      2871      5958      8708     10868     10346      9027      7012      4860      2822      2051      1819      1436       924       371       133        23        13         8        18         0         9         0         4         0         0         0         0         0         8         0         0         0         0         1         0         0         0         0         0
        0         0         0         2         1         1         2         4         4        56       520      1785      4031      6320      8264      8016      7077      6000      3762      2532      1565      1110       860       371       128        53        11        14         0         0         0         0         0         1         0         0         0         0         0         4         8         0         0         0         0         0         0         0         0         0
        0         2         0         0         4         4         3         1         7        50       318       957      2450      4262      5697      6027      5677      4656      3087      1836      1117       759       524       191       108        62         2         0         0         0        12         0         0         0         0         0         4         0         0         4         0         0         0         0         0         0         0         0         0         2
        0         1         0         1         0         8         3         3         4        20       151       549      1437      2646      3796      4209      4175      4012      2718      1384       847       454       278       176       105        27        13         8         3         0         4         0         0         0         0         0         4         0         0         0         0         0         0         0         0         0         0         0         0         0
        0         0         1         1         0         5         2         3         0        25        58       381       741      1607      2738      3308      3399      3629      2468      1236       647       300       213       108        62        18         5         0         0         4         0         4         0         0         0         0         0         4         0         0         0         0         0         0         0         0         0         0         0         0
        0         0         0         2         0         0         2         8         4        14        49       204       558      1093      1883      2494      3054      2950      2520      1216       497       257       153        58        40        10         7         2         0         0         4         0         0         0         8         0         0         0         0         0         0         0         0         0         0         0         0         0         0         0
        0         0         0         4         5         2         3         5         0         8        31       149       360      1013      1534      2099      2163      2856      2236      1067       446       167       102        81        46        10         6         0         0         0         0         0         4         0         0         0         0         4         0         0         4         0         0         0         0         0         0         0         0         0
